<!DOCTYPE svg PUBLIC "-//W3C//DTD SVG 1.1//EN" "http://www.w3.org/Graphics/SVG/1.1/DTD/svg11.dtd">
<!-- Uploaded to: SVG Repo, www.svgrepo.com, Transformed by: SVG Repo Mixer Tools -->
<svg fill="#000000" width="800px" height="800px" viewBox="0 0 256 256" id="Flat" xmlns="http://www.w3.org/2000/svg" stroke="#000000">
<g id="SVGRepo_bgCarrier" stroke-width="0"/>
<g id="SVGRepo_tracerCarrier" stroke-linecap="round" stroke-linejoin="round"/>
<g id="SVGRepo_iconCarrier"> <path d="M128,100a28,28,0,1,0,28,28A28.03146,28.03146,0,0,0,128,100Zm0,48a20,20,0,1,1,20-20A20.02229,20.02229,0,0,1,128,148ZM48,100a28,28,0,1,0,28,28A28.03146,28.03146,0,0,0,48,100Zm0,48a20,20,0,1,1,20-20A20.02229,20.02229,0,0,1,48,148Zm160-48a28,28,0,1,0,28,28A28.03146,28.03146,0,0,0,208,100Zm0,48a20,20,0,1,1,20-20A20.02229,20.02229,0,0,1,208,148Z"/> </g>
</svg>